{
    "copyFiles": [
    	"UnityAdPlugin.java",
    	"res/drawable/unityads_background_button_pause.xml",
    	"res/drawable/unityads_icon_play.xml",
    	"res/drawable/unityads_icon_speaker_base.xml",
    	"res/drawable/unityads_icon_speaker_triangle.xml",
    	"res/drawable/unityads_icon_speaker_waves.xml",
    	"res/layout/unityads_button_audio_toggle.xml",
    	"res/layout/unityads_button_pause.xml",
    	"res/layout/unityads_view_video_paused.xml",
    	"res/layout/unityads_view_video_play.xml",
        "res/values/texts.xml"	
    ],
    "libraries": [],
    "jars": [
    	"unity-ads.jar"
    ],
    "injectionXML": "manifest.xml",
	"injectionXSL": "manifest.xsl"
}